[
    {
        "model": "matching.AssessmentQuestion",
        "pk": 1,
        "fields":{
            "index": 0,
            "title": "¿Cuál es tu género?",
            "options": [
                "Masculino",
                "Femenino",
                "Otro"
            ]
        }
    },
    {
        "model": "matching.AssessmentQuestion",
        "pk": 2,
        "fields": {
            "index": 1,
            "title": "¿Fumas?",
            "options": [
                "Sí",
                "No"
            ]
        }
    },
    {
        "model": "matching.AssessmentQuestion",
        "pk": 3,
        "fields": {
            "index": 2,
            "title": "¿Has tenido antecedentes de presión alta?",
            "options": [
                "Sí",
                "No",
                "No lo sé"
            ]
        }
    },
    {
        "model": "matching.AssessmentQuestion",
        "pk": 4,
        "fields": {
            "index": 3,
            "title": "¿Tienes diabetes?",
            "options": [
                "Sí",
                "No",
                "No lo sé"
            ]
        }
    },
    {
        "model": "matching.AssessmentQuestion",
        "pk": 5,
        "fields": {
            "index": 4,
            "title": "¿Por cuánto tiempo te has sentido mal?",
            "options": [
                "Sí",
                "No",
                "No lo sé"
            ]
        }
    },
    {
        "model": "matching.AssessmentQuestion",
        "pk": 6,
        "fields": {
            "index": 5,
            "title": "¿Tus malestares afectan tu vida diaria?",
            "options": [
                "Sí",
                "No",
                "No lo sé"
            ]
        }
    },
    {
        "model": "matching.AssessmentQuestion",
        "pk": 7,
        "fields": {
            "index": 6,
            "title": "¿Tienes impulsos de hacerte daño?",
            "options": [
                "Sí",
                "No",
                "No lo sé"
            ]
        }
    },
    {
        "model": "matching.AssessmentQuestion",
        "pk": 8,
        "fields": {
            "index": 7,
            "title": "¿Tienes dificultades para dormir?",
            "options": [
                "Sí",
                "No",
                "No lo sé"
            ]
        }
    },
    {
        "model": "matching.AssessmentQuestion",
        "pk": 9,
        "fields": {
            "index": 8,
            "title": "¿Tus manos o alguna parte de tu cuerpo tiemblan o se mueven involuntariamente?",
            "options": [
                "Sí",
                "No",
                "No lo sé"
            ]
        }
    },
    {
        "model": "matching.AssessmentQuestion",
        "pk": 10,
        "fields": {
            "index": 9,
            "title": "¿A veces te sientes cansado o inquieto?",
            "options": [
                "Sí",
                "No",
                "No lo sé"
            ]
        }
    },
    {
        "model": "matching.AssessmentQuestion",
        "pk": 11,
        "fields": {
            "index": 10,
            "title": "¿Sudas más de lo normal?",
            "options": [
                "Sí",
                "No",
                "No lo sé"
            ]
        }
    },
    {
        "model": "matching.AssessmentQuestion",
        "pk": 12,
        "fields": {
            "index": 11,
            "title": "¿Usualmente te sientes ansioso?",
            "options": [
                "Sí",
                "No",
                "No lo sé"
            ]
        }
    },
    {
        "model": "matching.AssessmentQuestion",
        "pk": 13,
        "fields": {
            "index": 12,
            "title": "¿Haz consumido analgésicos derivados de la morfina, o drogas opioides como la heroína?",
            "options": [
                "Sí",
                "No",
                "No lo sé"
            ]
        }
    },
    {
        "model": "matching.AssessmentQuestion",
        "pk": 14,
        "fields": {
            "index": 13,
            "title": "¿Tiendes a consumir alcohol a menudo?",
            "options": [
                "Sí",
                "No",
                "No lo sé"
            ]
        }
    }
]